<?xml version="1.0" encoding="UTF-8"?>
<kml xmlns="http://www.opengis.net/kml/2.2">
  <Document>
    <name>Directions from Virovitica to Pitomača</name>
    <Style id="icon-1899-DB4436-nodesc-normal">
      <IconStyle>
        <color>ff3644db</color>
        <scale>1</scale>
        <Icon>
          <href>http://www.gstatic.com/mapspro/images/stock/503-wht-blank_maps.png</href>
        </Icon>
        <hotSpot x="32" xunits="pixels" y="64" yunits="insetPixels"/>
      </IconStyle>
      <LabelStyle>
        <scale>0</scale>
      </LabelStyle>
      <BalloonStyle>
        <text><![CDATA[<h3>$[name]</h3>]]></text>
      </BalloonStyle>
    </Style>
    <Style id="icon-1899-DB4436-nodesc-highlight">
      <IconStyle>
        <color>ff3644db</color>
        <scale>1</scale>
        <Icon>
          <href>http://www.gstatic.com/mapspro/images/stock/503-wht-blank_maps.png</href>
        </Icon>
        <hotSpot x="32" xunits="pixels" y="64" yunits="insetPixels"/>
      </IconStyle>
      <LabelStyle>
        <scale>1</scale>
      </LabelStyle>
      <BalloonStyle>
        <text><![CDATA[<h3>$[name]</h3>]]></text>
      </BalloonStyle>
    </Style>
    <StyleMap id="icon-1899-DB4436-nodesc">
      <Pair>
        <key>normal</key>
        <styleUrl>#icon-1899-DB4436-nodesc-normal</styleUrl>
      </Pair>
      <Pair>
        <key>highlight</key>
        <styleUrl>#icon-1899-DB4436-nodesc-highlight</styleUrl>
      </Pair>
    </StyleMap>
    <Style id="line-1267FF-5000-nodesc-normal">
      <LineStyle>
        <color>ffff6712</color>
        <width>5</width>
      </LineStyle>
      <BalloonStyle>
        <text><![CDATA[<h3>$[name]</h3>]]></text>
      </BalloonStyle>
    </Style>
    <Style id="line-1267FF-5000-nodesc-highlight">
      <LineStyle>
        <color>ffff6712</color>
        <width>7.5</width>
      </LineStyle>
      <BalloonStyle>
        <text><![CDATA[<h3>$[name]</h3>]]></text>
      </BalloonStyle>
    </Style>
    <StyleMap id="line-1267FF-5000-nodesc">
      <Pair>
        <key>normal</key>
        <styleUrl>#line-1267FF-5000-nodesc-normal</styleUrl>
      </Pair>
      <Pair>
        <key>highlight</key>
        <styleUrl>#line-1267FF-5000-nodesc-highlight</styleUrl>
      </Pair>
    </StyleMap>
    <Placemark>
      <name>Directions from Virovitica to Pitomača</name>
      <styleUrl>#line-1267FF-5000-nodesc</styleUrl>
      <LineString>
        <tessellate>1</tessellate>
        <coordinates>
          17.3855,45.8312,0
          17.38377,45.83128,0
          17.38381,45.83202,0
          17.38382,45.83222,0
          17.38384,45.83257,0
          17.38385,45.83282,0
          17.38385,45.83291,0
          17.38386,45.83296,0
          17.38397,45.83329,0
          17.38411,45.83373,0
          17.38412,45.83375,0
          17.38428,45.83425,0
          17.38437,45.83453,0
          17.38438,45.83458,0
          17.38425,45.83457,0
          17.38401,45.8346,0
          17.38385,45.83464,0
          17.38364,45.8347,0
          17.38352,45.83473,0
          17.38339,45.83476,0
          17.38325,45.83479,0
          17.38311,45.83481,0
          17.38244,45.83483,0
          17.38156,45.83481,0
          17.37928,45.83471,0
          17.37878,45.83468,0
          17.37834,45.83466,0
          17.37796,45.83469,0
          17.37771,45.83472,0
          17.37733,45.83477,0
          17.37708,45.83481,0
          17.37682,45.83486,0
          17.37658,45.83492,0
          17.37604,45.83508,0
          17.37547,45.83525,0
          17.37446,45.83556,0
          17.3714,45.8365,0
          17.37046,45.83678,0
          17.37006,45.83689,0
          17.36659,45.83794,0
          17.36588,45.83816,0
          17.36198,45.83936,0
          17.36129,45.83957,0
          17.35736,45.84077,0
          17.3569,45.84091,0
          17.3546,45.84161,0
          17.35418,45.84176,0
          17.35397,45.84184,0
          17.35355,45.842,0
          17.35334,45.84209,0
          17.35293,45.84227,0
          17.3528,45.84237,0
          17.35278,45.84238,0
          17.3524,45.84253,0
          17.3521,45.84266,0
          17.35192,45.84275,0
          17.3516,45.84289,0
          17.35134,45.84301,0
          17.35113,45.84309,0
          17.34989,45.84357,0
          17.34981,45.84358,0
          17.34912,45.84388,0
          17.34749,45.84457,0
          17.34608,45.84517,0
          17.34202,45.84684,0
          17.34147,45.84709,0
          17.34119,45.84721,0
          17.34089,45.84732,0
          17.3408,45.84735,0
          17.34012,45.84765,0
          17.33978,45.84779,0
          17.33968,45.84783,0
          17.33868,45.84824,0
          17.33826,45.84842,0
          17.33713,45.84888,0
          17.33614,45.8493,0
          17.33335,45.85049,0
          17.33141,45.8513,0
          17.33085,45.85152,0
          17.32967,45.85202,0
          17.32933,45.85217,0
          17.32912,45.85225,0
          17.32792,45.85276,0
          17.32777,45.85282,0
          17.32632,45.85343,0
          17.32499,45.85397,0
          17.32497,45.85398,0
          17.32445,45.85419,0
          17.32305,45.85478,0
          17.32288,45.85485,0
          17.32245,45.85502,0
          17.32178,45.85531,0
          17.32142,45.85546,0
          17.32104,45.85562,0
          17.32027,45.85594,0
          17.32015,45.85598,0
          17.31897,45.85646,0
          17.31797,45.85691,0
          17.31768,45.85703,0
          17.31738,45.85714,0
          17.31624,45.85765,0
          17.31556,45.85792,0
          17.31526,45.85803,0
          17.31495,45.85815,0
          17.31459,45.8583,0
          17.31439,45.85839,0
          17.3142,45.85847,0
          17.31401,45.85855,0
          17.31355,45.85874,0
          17.3134,45.8588,0
          17.313,45.85898,0
          17.31254,45.85917,0
          17.31212,45.85934,0
          17.31191,45.85943,0
          17.31127,45.8597,0
          17.31055,45.86,0
          17.30985,45.86028,0
          17.30966,45.86036,0
          17.30941,45.86046,0
          17.30893,45.86065,0
          17.30885,45.86069,0
          17.30861,45.86078,0
          17.3083,45.86092,0
          17.30785,45.86111,0
          17.30708,45.8614,0
          17.30687,45.8615,0
          17.30648,45.86166,0
          17.30626,45.86176,0
          17.30601,45.86184,0
          17.30574,45.86193,0
          17.30514,45.86206,0
          17.30408,45.86234,0
          17.30395,45.86237,0
          17.30383,45.8624,0
          17.30373,45.86243,0
          17.30372,45.86243,0
          17.30359,45.86249,0
          17.30356,45.86251,0
          17.30355,45.86251,0
          17.30348,45.86255,0
          17.30342,45.86259,0
          17.3034,45.8626,0
          17.30331,45.86267,0
          17.30314,45.86281,0
          17.3029,45.86302,0
          17.30269,45.8632,0
          17.30245,45.86342,0
          17.30229,45.86359,0
          17.30223,45.86364,0
          17.30218,45.86369,0
          17.30202,45.86385,0
          17.30197,45.86391,0
          17.30192,45.86395,0
          17.30157,45.8643,0
          17.30118,45.86465,0
          17.30058,45.86532,0
          17.30054,45.86536,0
          17.3005,45.8654,0
          17.30017,45.86574,0
          17.30002,45.86589,0
          17.29976,45.86617,0
          17.2994,45.86656,0
          17.29938,45.86659,0
          17.29929,45.86669,0
          17.29901,45.86703,0
          17.29889,45.86717,0
          17.29881,45.86726,0
          17.29863,45.86748,0
          17.29843,45.86773,0
          17.29835,45.86783,0
          17.29832,45.86787,0
          17.29801,45.8682,0
          17.29798,45.86822,0
          17.29786,45.86831,0
          17.29784,45.86834,0
          17.29775,45.86838,0
          17.29771,45.86841,0
          17.29746,45.86858,0
          17.2974,45.86862,0
          17.29733,45.86866,0
          17.29634,45.86928,0
          17.29631,45.8693,0
          17.29605,45.86941,0
          17.29595,45.86946,0
          17.29565,45.86959,0
          17.29561,45.86961,0
          17.29523,45.86977,0
          17.29511,45.86983,0
          17.29494,45.8699,0
          17.29466,45.87002,0
          17.29451,45.87009,0
          17.29434,45.87017,0
          17.2943,45.87019,0
          17.29385,45.87039,0
          17.29374,45.87043,0
          17.29364,45.87047,0
          17.29359,45.87049,0
          17.29343,45.87056,0
          17.29327,45.87063,0
          17.29281,45.87082,0
          17.29279,45.87083,0
          17.29261,45.87092,0
          17.29241,45.87102,0
          17.29223,45.87113,0
          17.29211,45.87122,0
          17.29208,45.87123,0
          17.29199,45.8713,0
          17.29183,45.87146,0
          17.29167,45.87162,0
          17.29142,45.87188,0
          17.29141,45.87189,0
          17.29137,45.87194,0
          17.29127,45.87207,0
          17.29109,45.87227,0
          17.29095,45.87247,0
          17.29063,45.87288,0
          17.29029,45.87328,0
          17.29,45.87368,0
          17.28972,45.87403,0
          17.28962,45.87417,0
          17.28928,45.87459,0
          17.28907,45.87484,0
          17.28897,45.87498,0
          17.28888,45.87516,0
          17.28884,45.87524,0
          17.2888,45.87532,0
          17.28876,45.87542,0
          17.28874,45.87553,0
          17.28872,45.87565,0
          17.28872,45.8757,0
          17.28872,45.87573,0
          17.28872,45.87581,0
          17.28875,45.87642,0
          17.28876,45.87668,0
          17.28877,45.8769,0
          17.28878,45.87706,0
          17.28881,45.87749,0
          17.28882,45.87778,0
          17.28883,45.87802,0
          17.28883,45.87811,0
          17.28885,45.87835,0
          17.28886,45.87854,0
          17.28888,45.8787,0
          17.2889,45.87901,0
          17.28891,45.87916,0
          17.28893,45.87957,0
          17.28896,45.88053,0
          17.28898,45.88083,0
          17.28901,45.88118,0
          17.28903,45.88138,0
          17.28903,45.88143,0
          17.28904,45.88158,0
          17.28906,45.88182,0
          17.28908,45.88212,0
          17.28908,45.88217,0
          17.28909,45.88231,0
          17.28909,45.88234,0
          17.2891,45.8825,0
          17.28911,45.88258,0
          17.28911,45.88264,0
          17.28911,45.8827,0
          17.28912,45.88287,0
          17.28913,45.88302,0
          17.28914,45.88321,0
          17.28914,45.88327,0
          17.28915,45.88338,0
          17.28919,45.8839,0
          17.2892,45.88405,0
          17.28921,45.88418,0
          17.28922,45.88439,0
          17.28922,45.8844,0
          17.28923,45.88464,0
          17.28924,45.88474,0
          17.28924,45.88483,0
          17.28925,45.88502,0
          17.28925,45.88518,0
          17.28926,45.88538,0
          17.28928,45.88575,0
          17.28929,45.88602,0
          17.2893,45.88622,0
          17.2893,45.88627,0
          17.28931,45.88632,0
          17.28932,45.88654,0
          17.28934,45.88678,0
          17.28934,45.88685,0
          17.28935,45.88696,0
          17.28938,45.88743,0
          17.28938,45.88751,0
          17.28939,45.88772,0
          17.28939,45.88776,0
          17.2894,45.88777,0
          17.2894,45.8879,0
          17.28941,45.88806,0
          17.28942,45.88827,0
          17.28942,45.88831,0
          17.28942,45.88841,0
          17.28942,45.88848,0
          17.28943,45.88865,0
          17.28944,45.8888,0
          17.28945,45.88909,0
          17.28946,45.88924,0
          17.28946,45.88928,0
          17.28946,45.88942,0
          17.28946,45.88944,0
          17.28947,45.88962,0
          17.28947,45.88993,0
          17.28948,45.89,0
          17.28951,45.89026,0
          17.28953,45.89039,0
          17.28954,45.89042,0
          17.28955,45.89048,0
          17.28958,45.89055,0
          17.28961,45.89063,0
          17.28966,45.8907,0
          17.28975,45.89085,0
          17.28976,45.89087,0
          17.28985,45.89101,0
          17.2902,45.89155,0
          17.2903,45.8917,0
          17.29041,45.89186,0
          17.29046,45.89196,0
          17.29056,45.89217,0
          17.29061,45.89223,0
          17.29068,45.89236,0
          17.29086,45.89271,0
          17.2909,45.89277,0
          17.29129,45.89338,0
          17.29129,45.89339,0
          17.29138,45.89355,0
          17.29147,45.8937,0
          17.29169,45.89403,0
          17.29178,45.89418,0
          17.29185,45.89437,0
          17.29189,45.8945,0
          17.29192,45.89457,0
          17.29193,45.89463,0
          17.29197,45.89477,0
          17.292,45.89497,0
          17.29201,45.89513,0
          17.29202,45.89526,0
          17.29203,45.89536,0
          17.29203,45.89537,0
          17.29203,45.89564,0
          17.29202,45.89592,0
          17.29202,45.89604,0
          17.29201,45.89622,0
          17.292,45.89648,0
          17.29199,45.89665,0
          17.29199,45.89673,0
          17.29199,45.89676,0
          17.292,45.89687,0
          17.292,45.89689,0
          17.29201,45.89702,0
          17.29204,45.89721,0
          17.29205,45.89724,0
          17.29209,45.8974,0
          17.29212,45.89751,0
          17.29213,45.89753,0
          17.29217,45.89763,0
          17.29231,45.89794,0
          17.29239,45.89812,0
          17.29245,45.89825,0
          17.29249,45.89834,0
          17.29261,45.89858,0
          17.29261,45.8986,0
          17.29266,45.89874,0
          17.29279,45.89909,0
          17.2928,45.89913,0
          17.29281,45.89914,0
          17.29281,45.89922,0
          17.29283,45.89936,0
          17.29283,45.89944,0
          17.29283,45.89948,0
          17.2928,45.89965,0
          17.2928,45.89975,0
          17.29278,45.90008,0
          17.29277,45.90013,0
          17.29274,45.90041,0
          17.29273,45.90048,0
          17.29269,45.90099,0
          17.29267,45.90124,0
          17.29265,45.90145,0
          17.29262,45.90173,0
          17.29261,45.90192,0
          17.29258,45.90225,0
          17.29249,45.90341,0
          17.29247,45.90363,0
          17.29245,45.90416,0
          17.29242,45.90461,0
          17.2924,45.90483,0
          17.29238,45.9054,0
          17.29238,45.90545,0
          17.29237,45.90598,0
          17.29234,45.90647,0
          17.29233,45.90709,0
          17.29232,45.90726,0
          17.29235,45.90779,0
          17.29239,45.90834,0
          17.29241,45.90844,0
          17.29248,45.90887,0
          17.29256,45.90942,0
          17.2926,45.9097,0
          17.29262,45.90981,0
          17.29268,45.91015,0
          17.29276,45.91071,0
          17.29287,45.91139,0
          17.29292,45.91188,0
          17.29297,45.91273,0
          17.29298,45.91284,0
          17.29299,45.91358,0
          17.293,45.9148,0
          17.293,45.91517,0
          17.293,45.91525,0
          17.293,45.91537,0
          17.293,45.91556,0
          17.293,45.91574,0
          17.293,45.91612,0
          17.293,45.91632,0
          17.293,45.91646,0
          17.293,45.91659,0
          17.293,45.91681,0
          17.293,45.9171,0
          17.293,45.91723,0
          17.293,45.91737,0
          17.293,45.91744,0
          17.29302,45.91769,0
          17.29302,45.91784,0
          17.29303,45.91826,0
          17.29303,45.91855,0
          17.29303,45.91873,0
          17.29303,45.9188,0
          17.29303,45.91885,0
          17.29304,45.91918,0
          17.29304,45.91933,0
          17.29304,45.91975,0
          17.29304,45.91976,0
          17.29304,45.92002,0
          17.29305,45.9202,0
          17.29305,45.92047,0
          17.29308,45.92106,0
          17.29309,45.92124,0
          17.29309,45.92133,0
          17.2931,45.92155,0
          17.2931,45.92162,0
          17.2931,45.92174,0
          17.2931,45.92187,0
          17.2931,45.92189,0
          17.29309,45.92199,0
          17.29308,45.92208,0
          17.29306,45.92221,0
          17.29304,45.92229,0
          17.29298,45.92256,0
          17.29297,45.92259,0
          17.29295,45.92265,0
          17.29293,45.92277,0
          17.29285,45.92309,0
          17.29283,45.92317,0
          17.29283,45.92318,0
          17.29281,45.92324,0
          17.2928,45.9233,0
          17.29277,45.92341,0
          17.29276,45.92346,0
          17.29268,45.9238,0
          17.29266,45.92386,0
          17.29264,45.92395,0
          17.29259,45.92416,0
          17.29258,45.92423,0
          17.29257,45.92427,0
          17.29249,45.92462,0
          17.29247,45.9247,0
          17.29243,45.92482,0
          17.29243,45.92483,0
          17.29239,45.92489,0
          17.29236,45.92495,0
          17.2923,45.92503,0
          17.29226,45.92505,0
          17.29221,45.92508,0
          17.2922,45.92508,0
          17.2921,45.92513,0
          17.29229,45.92568,0
          17.29243,45.92606,0
          17.2925,45.92625,0
          17.29255,45.9264,0
          17.29265,45.92669,0
          17.29267,45.92676,0
          17.29273,45.92692,0
          17.29278,45.92706,0
          17.29286,45.92726,0
          17.29303,45.92771,0
          17.29308,45.92784,0
          17.29317,45.92806,0
          17.29318,45.92809,0
          17.29321,45.92816,0
          17.29329,45.92846,0
          17.29332,45.92854,0
          17.29335,45.92861,0
          17.29341,45.92881,0
          17.29347,45.92897,0
          17.29355,45.92923,0
          17.29358,45.92934,0
          17.29364,45.92949,0
          17.29368,45.9296,0
          17.29368,45.92961,0
          17.29371,45.9297,0
          17.29373,45.92974,0
          17.29376,45.92985,0
          17.29383,45.92999,0
          17.29392,45.93022,0
          17.29397,45.93033,0
          17.29401,45.93038,0
          17.29473,45.93141,0
          17.29489,45.93162,0
          17.29498,45.93176,0
          17.29499,45.93178,0
          17.29504,45.93189,0
          17.2951,45.93203,0
          17.29539,45.93314,0
          17.29557,45.93388,0
          17.29625,45.93645,0
          17.29643,45.93713,0
          17.29676,45.93828,0
          17.29679,45.93839,0
          17.29685,45.93863,0
          17.29693,45.93891,0
          17.29725,45.94005,0
          17.29748,45.94094,0
          17.29776,45.94191,0
          17.29788,45.94241,0
          17.29794,45.94265,0
          17.29796,45.94278,0
          17.29796,45.94291,0
          17.29793,45.94301,0
          17.29726,45.94375,0
          17.29715,45.94394,0
          17.29711,45.94417,0
          17.29714,45.94431,0
          17.29721,45.94448,0
          17.29734,45.94461,0
          17.29746,45.94468,0
          17.29769,45.94474,0
          17.29795,45.94477,0
          17.29819,45.94477,0
          17.29858,45.94469,0
          17.29877,45.94468,0
          17.29912,45.94469,0
          17.29952,45.94471,0
          17.29982,45.94469,0
          17.30007,45.94465,0
          17.30014,45.94463,0
          17.30056,45.94451,0
          17.30236,45.94408,0
          17.30359,45.94378,0
          17.30383,45.94372,0
          17.30578,45.94325,0
          17.30921,45.94242,0
          17.31073,45.94206,0
          17.31202,45.94176,0
          17.31249,45.94164,0
          17.31271,45.94158,0
          17.313,45.94142,0
          17.31304,45.94139,0
          17.31363,45.94098,0
          17.31369,45.94096,0
          17.31376,45.94096,0
          17.31379,45.94096,0
          17.31392,45.94099,0
          17.31401,45.94106,0
          17.31418,45.9412,0
          17.31621,45.94303,0
          17.32253,45.94873,0
          17.32178,45.94972,0
          17.32156,45.94998,0
          17.32151,45.95,0
          17.3215,45.95,0
          17.32144,45.95001,0
          17.32047,45.94985,0
          17.31904,45.94961,0
          17.3148,45.94903,0
          17.31426,45.94897,0
          17.31383,45.94893,0
          17.31291,45.94892,0
          17.3123,45.94893,0
          17.31222,45.94895,0
          17.31221,45.94896,0
          17.31218,45.94897,0
          17.31214,45.94901,0
          17.31193,45.9517,0
          17.31187,45.9533,0
          17.3118,45.95501,0
          17.31173,45.95527,0
          17.31133,45.9558,0
          17.311,45.95619,0
          17.31089,45.95632,0
          17.31066,45.95667,0
          17.31059,45.95684,0
          17.31057,45.95697,0
          17.31061,45.95721,0
          17.31085,45.9579,0
          17.31118,45.95888,0
          17.31117,45.95893,0
          17.31115,45.95895,0
          17.31112,45.95898,0
          17.31076,45.95918,0
          17.31036,45.95933,0
          17.30993,45.95949,0
          17.3097,45.95957,0
          17.30941,45.95975,0
          17.30872,45.96019,0
          17.3083,45.96046,0
          17.30797,45.96066,0
          17.30774,45.96077,0
          17.30762,45.96082,0
          17.30751,45.96085,0
          17.30736,45.96086,0
          17.3072,45.96085,0
          17.307,45.96081,0
          17.30581,45.96057,0
          17.3038,45.96014,0
          17.30213,45.95976,0
          17.30033,45.95941,0
          17.2951,45.95839,0
          17.29421,45.95822,0
          17.29404,45.95817,0
          17.29387,45.95812,0
          17.29371,45.95807,0
          17.29355,45.95801,0
          17.29339,45.95795,0
          17.29327,45.9579,0
          17.29314,45.95785,0
          17.29125,45.95707,0
          17.28904,45.95614,0
          17.28658,45.95481,0
          17.28355,45.95316,0
          17.28133,45.95194,0
          17.28113,45.95182,0
          17.28012,45.95126,0
          17.2801,45.95126,0
          17.27932,45.95081,0
          17.27926,45.95076,0
          17.27921,45.9507,0
          17.27914,45.95065,0
          17.27908,45.9506,0
          17.27902,45.95056,0
          17.27895,45.95051,0
          17.27887,45.95047,0
          17.2788,45.95043,0
          17.27873,45.9504,0
          17.27865,45.95036,0
          17.27857,45.95033,0
          17.2785,45.9503,0
          17.27841,45.95028,0
          17.2784,45.95027,0
          17.27833,45.95025,0
          17.27825,45.95023,0
          17.27817,45.95021,0
          17.27752,45.95008,0
          17.27711,45.95,0
          17.27656,45.94992,0
          17.27589,45.94989,0
          17.27532,45.94989,0
          17.27433,45.9499,0
          17.27254,45.94989,0
          17.27044,45.94968,0
          17.26786,45.94934,0
          17.26605,45.94906,0
          17.2642,45.94831,0
          17.26363,45.94812,0
          17.2611,45.94725,0
          17.26065,45.94712,0
          17.26035,45.94707,0
          17.26003,45.94705,0
          17.25993,45.94704,0
          17.25982,45.94704,0
          17.25972,45.94704,0
          17.25762,45.94705,0
          17.25725,45.94705,0
          17.25654,45.94704,0
          17.25611,45.94705,0
          17.25544,45.94705,0
          17.25509,45.94707,0
          17.25435,45.94713,0
          17.25401,45.94717,0
          17.25305,45.94727,0
          17.25229,45.94733,0
          17.25189,45.94736,0
          17.25163,45.94737,0
          17.25136,45.94738,0
          17.25082,45.94741,0
          17.25032,45.94746,0
          17.24978,45.94753,0
          17.24926,45.94762,0
          17.24873,45.94772,0
          17.24819,45.94783,0
          17.24793,45.9479,0
          17.24678,45.94815,0
          17.24596,45.9483,0
          17.24554,45.94837,0
          17.24515,45.94843,0
          17.24486,45.94848,0
          17.24426,45.94854,0
          17.2437,45.94857,0
          17.24313,45.9486,0
          17.24257,45.94861,0
          17.24198,45.94864,0
          17.2414,45.94868,0
          17.24085,45.94872,0
          17.24026,45.94879,0
          17.23975,45.94885,0
          17.23919,45.9489,0
          17.23863,45.94896,0
          17.23808,45.94902,0
          17.23752,45.94908,0
          17.23696,45.94915,0
          17.23641,45.94922,0
          17.23585,45.9493,0
          17.23541,45.94941,0
          17.23483,45.94951,0
          17.23427,45.94963,0
          17.23314,45.94989,0
          17.23264,45.94999,0
          17.23267,45.95009,0
          17.23267,45.9501,0
        </coordinates>
      </LineString>
    </Placemark>
    <Placemark>
      <name>Virovitica</name>
      <styleUrl>#icon-1899-DB4436-nodesc</styleUrl>
      <Point>
        <coordinates>
          17.3855034,45.831204,0
        </coordinates>
      </Point>
    </Placemark>
    <Placemark>
      <name>Križnica</name>
      <styleUrl>#icon-1899-DB4436-nodesc</styleUrl>
      <Point>
        <coordinates>
          17.3099347,45.9594899,0
        </coordinates>
      </Point>
    </Placemark>
    <Placemark>
      <name>Pitomača</name>
      <styleUrl>#icon-1899-DB4436-nodesc</styleUrl>
      <Point>
        <coordinates>
          17.2326716,45.9501043,0
        </coordinates>
      </Point>
    </Placemark>
  </Document>
</kml>
